fir.vcd
$date
   Wed Oct 25 07:13:20 2023
$end
$version
  2022.1
$end
$timescale
  1ps
$end
$scope module fir_tb $end
$var wire 1 ! awready $end
$var wire 1 " wready $end
$var reg 1 # awvalid $end
$var reg 12 $ awaddr [11:0] $end
$var reg 1 % wvalid $end
$var reg 32 & wdata [31:0] $end
$var wire 1 ' arready $end
$var reg 1 ( rready $end
$var reg 1 ) arvalid $end
$var reg 12 * araddr [11:0] $end
$var wire 1 + rvalid $end
$var wire 32 , rdata [31:0] $end
$var reg 1 - ss_tvalid $end
$var reg 32 . ss_tdata [31:0] $end
$var reg 1 / ss_tlast $end
$var wire 1 0 ss_tready $end
$var reg 1 1 sm_tready $end
$var wire 1 2 sm_tvalid $end
$var wire 32 3 sm_tdata [31:0] $end
$var wire 1 4 sm_tlast $end
$var reg 1 5 axis_clk $end
$var reg 1 6 axis_rst_n $end
$var wire 4 7 tap_WE [3:0] $end
$var wire 1 8 tap_EN $end
$var wire 32 9 tap_Di [31:0] $end
$var wire 12 : tap_A [11:0] $end
$var wire 32 ; tap_Do [31:0] $end
$var wire 4 < data_WE [3:0] $end
$var wire 1 = data_EN $end
$var wire 32 > data_Di [31:0] $end
$var wire 12 ? data_A [11:0] $end
$var wire 32 @ data_Do [31:0] $end
$var reg 1 A error_coef $end
$var reg 32 B data_length [31:0] $end
$var integer 32 C Din [31:0] $end
$var integer 32 D golden [31:0] $end
$var integer 32 E input_data [31:0] $end
$var integer 32 F golden_data [31:0] $end
$var integer 32 G m [31:0] $end
$var integer 32 H i [31:0] $end
$var integer 32 I k [31:0] $end
$var reg 1 J error $end
$var integer 32 K timeout [31:0] $end
$scope module fir_DUT $end
$var wire 1 L awvalid $end
$var wire 12 M awaddr [11:0] $end
$var wire 1 ! awready $end
$var wire 1 N wvalid $end
$var wire 32 O wdata [31:0] $end
$var wire 1 " wready $end
$var wire 1 P arvalid $end
$var wire 12 Q araddr [11:0] $end
$var wire 1 ' arready $end
$var wire 1 + rvalid $end
$var wire 32 , rdata [31:0] $end
$var wire 1 R rready $end
$var wire 1 S ss_tvalid $end
$var wire 32 T ss_tdata [31:0] $end
$var wire 1 0 ss_tready $end
$var wire 1 U ss_tlast $end
$var wire 1 2 sm_tvalid $end
$var wire 32 3 sm_tdata [31:0] $end
$var wire 1 V sm_tready $end
$var wire 1 4 sm_tlast $end
$var wire 4 7 tap_WE [3:0] $end
$var wire 1 8 tap_EN $end
$var wire 32 9 tap_Di [31:0] $end
$var wire 12 : tap_A [11:0] $end
$var wire 32 ; tap_Do [31:0] $end
$var wire 4 < data_WE [3:0] $end
$var wire 1 = data_EN $end
$var wire 32 > data_Di [31:0] $end
$var wire 12 ? data_A [11:0] $end
$var wire 32 @ data_Do [31:0] $end
$var wire 1 W axis_clk $end
$var wire 1 X axis_rst_n $end
$var reg 1 Y temp_awready $end
$var reg 1 Z temp_wready $end
$var reg 12 [ awaddr_hold [11:0] $end
$var reg 32 \ wdata_hold [31:0] $end
$var reg 1 ] awaddr_done $end
$var reg 1 ^ wdata_done $end
$var wire 1 _ data_valid $end
$var reg 1 ` temp_tap_EN $end
$var reg 1 a temp_arready $end
$var reg 1 b temp_rvalid $end
$var reg 4 c mul_counter [3:0] $end
$var reg 32 d temp_tap_Do [31:0] $end
$var reg 4 e rready_counter [3:0] $end
$var reg 1 f temp_data_EN $end
$var reg 4 g temp_data_WE [3:0] $end
$var reg 1 h temp_ss_tready $end
$var reg 32 i temp_data_Di [31:0] $end
$var reg 12 j temp_r_data_A [11:0] $end
$var reg 1 k start_fir $end
$var reg 12 l temp_wr_data_A [11:0] $end
$var reg 12 m temp_data_A [11:0] $end
$var reg 4 n data_counter [3:0] $end
$var reg 12 o tap_addr_fir [11:0] $end
$var reg 32 p mul_data_tap [31:0] $end
$var reg 32 q fir_data [31:0] $end
$var reg 32 r temp_sm_tdata [31:0] $end
$var reg 1 s temp_sm_tvalid $end
$var reg 1 t temp_sm_tlast $end
$upscope $end
$scope module tap_RAM $end
$var wire 1 u CLK $end
$var wire 4 7 WE [3:0] $end
$var wire 1 8 EN $end
$var wire 32 9 Di [31:0] $end
$var wire 32 ; Do [31:0] $end
$var wire 12 : A [11:0] $end
$var reg 12 v r_A [11:0] $end
$upscope $end
$scope module data_RAM $end
$var wire 1 w CLK $end
$var wire 4 < WE [3:0] $end
$var wire 1 = EN $end
$var wire 32 > Di [31:0] $end
$var wire 32 @ Do [31:0] $end
$var wire 12 ? A [11:0] $end
$var reg 12 x r_A [11:0] $end
$upscope $end
$scope task config_write $end
$var reg 12 y addr [11:0] $end
$var reg 32 z data [31:0] $end
$upscope $end
$scope task config_read_check $end
$var reg 12 { addr [11:0] $end
$var reg 32 | exp_data [31:0] $end
$var reg 32 } mask [31:0] $end
$upscope $end
$scope task ss $end
$var reg 32 ~ in1 [31:0] $end
$upscope $end
$scope task sm $end
$var reg 32 !! in2 [31:0] $end
$var reg 32 "! pcnt [31:0] $end
$upscope $end
$upscope $end
$enddefinitions $end
#0
$dumpvars
0!
bx !!
0"
bx "!
0#
bx $
0%
bx &
0'
x(
x)
bx *
0+
bx ,
1-
b1 .
0/
00
11
02
b0 3
04
05
06
b0 7
08
b0 9
bx :
b0 ;
b0 <
0=
b0 >
b0 ?
b0 @
0A
b1001011000 B
b11111111111111111011000111100000 C
b11111111111111111011000111100001 D
b1 E
b1 F
b1001011000 G
b0 H
bx I
0J
b11110100001001000000 K
0L
bx M
0N
bx O
xP
bx Q
xR
1S
b1 T
0U
1V
0W
0X
0Y
0Z
b0 [
b0 \
0]
0^
0_
0`
0a
0b
b0 c
bx d
b0 e
0f
b0 g
0h
b0 i
b0 j
0k
bx l
b0 m
b0 n
b0 o
bx p
b0 q
b0 r
0s
0t
0u
bx v
0w
bx x
b10000 y
b1001011000 z
bx {
bx |
bx }
b1 ~
$end
#5000
1#
b10000 $
1%
b1001011000 &
15
b0 @
b11110100001000111111 K
1L
b10000 M
1N
b1001011000 O
1W
0Y
0Z
b0 [
b0 \
0]
0^
0`
0a
0b
b0 c
bx d
b0 e
0f
b0 g
0h
b0 i
b0 j
0k
b0 m
b0 n
b0 o
b0 q
b0 r
0s
0t
1u
bx v
1w
b0 x
#10000
05
0W
0u
0w
#15000
1!
1"
15
16
18
bx ;
1=
bx @
b11110100001000111110 K
1W
1X
1Y
1Z
b0 [
b0 \
0]
0^
1`
0a
0b
b0 c
bx d
b0 e
1f
b0 g
0h
b0 i
b0 j
b0 m
b0 n
bx p
b0 q
b0 r
0s
0t
1u
bx v
1w
b0 x
#20000
05
0W
0u
0w
#25000
0!
0"
0#
0%
10
15
b1111 7
b1001011000 9
b111111110000 :
b0 I
b11110100001000111101 K
0L
0N
1W
0Y
0Z
b10000 [
b1001011000 \
1]
1^
1_
1`
0a
0b
b0 c
b0 e
1f
b0 g
1h
b0 i
b0 j
b0 m
b0 n
b0 q
b0 r
0s
0t
1u
bx v
1w
b0 x
b100000 y
b0 z
#30000
05
0W
0u
0w
#35000
1#
b100000 $
1%
b0 &
1-
b10 .
00
15
b0 7
b111111110000 :
bx ;
b1 >
b100 ?
b1 H
b11110100001000111100 K
1L
b100000 M
1N
b0 O
b10 T
1W
0Y
0Z
b10000 [
b1001011000 \
0]
0^
0_
1`
0a
0b
b0 c
bx d
b0 e
1f
b0 g
0h
b1 i
bx j
1k
b100 m
b0 n
b0 o
b0 p
b0 q
b0 r
0s
0t
1u
b111111110000 v
1w
b0 x
b10 ~
#40000
05
0W
0u
0w
#45000
1!
1"
15
bx @
b11110100001000111011 K
1W
1Y
1Z
b10000 [
b1001011000 \
0]
0^
1`
0a
0b
b0 c
b0 e
1f
b0 g
0h
b1 i
bx j
b100 m
b0 n
b100 o
b0 q
b0 r
0s
0t
1u
b111111110000 v
1w
b100 x
#50000
05
0W
0u
0w
#55000
0!
0"
0#
0%
10
15
b1111 7
b0 9
b0 :
b1 I
b11110100001000111010 K
0L
0N
1W
0Y
0Z
b100000 [
b0 \
1]
1^
1_
1`
0a
0b
b0 c
b0 e
1f
b0 g
1h
b1 i
bx j
b100 m
b0 n
b1000 o
b0 q
b0 r
0s
0t
1u
b111111110000 v
1w
b100 x
b100100 y
b11111111111111111111111111110110 z
#60000
05
0W
0u
0w
#65000
1#
b100100 $
1%
b11111111111111111111111111110110 &
1-
b11 .
00
15
b0 7
b0 :
b0 ;
b10 >
b1000 ?
b10 H
b11110100001000111001 K
1L
b100100 M
1N
b11111111111111111111111111110110 O
b11 T
1W
0Y
0Z
b100000 [
b0 \
0]
0^
0_
1`
0a
0b
b0 c
bx d
b0 e
1f
b0 g
0h
b10 i
bx j
1k
b1000 m
b0 n
b0 o
b0 p
b0 q
b0 r
0s
0t
1u
b0 v
1w
b100 x
b11 ~
#70000
05
0W
0u
0w
#75000
1!
1"
15
bx @
b11110100001000111000 K
1W
1Y
1Z
b100000 [
b0 \
0]
0^
1`
0a
0b
b0 c
b0 e
1f
b0 g
0h
b10 i
bx j
b1000 m
b0 n
b100 o
b0 q
b0 r
0s
0t
1u
b0 v
1w
b1000 x
#80000
05
0W
0u
0w
#85000
0!
0"
0#
0%
10
15
b1111 7
b11111111111111111111111111110110 9
b100 :
b10 I
b11110100001000110111 K
0L
0N
1W
0Y
0Z
b100100 [
b11111111111111111111111111110110 \
1]
1^
1_
1`
0a
0b
b0 c
b0 e
1f
b0 g
1h
b10 i
bx j
b1000 m
b0 n
b1000 o
b0 q
b0 r
0s
0t
1u
b0 v
1w
b1000 x
b101000 y
b11111111111111111111111111110111 z
#90000
05
0W
0u
0w
#95000
1#
b101000 $
1%
b11111111111111111111111111110111 &
1-
b100 .
00
15
b0 7
b100 :
b11111111111111111111111111110110 ;
b11 >
b1100 ?
b11 H
b11110100001000110110 K
1L
b101000 M
1N
b11111111111111111111111111110111 O
b100 T
1W
0Y
0Z
b100100 [
b11111111111111111111111111110110 \
0]
0^
0_
1`
0a
0b
b0 c
bx d
b0 e
1f
b0 g
0h
b11 i
bx j
1k
b1100 m
b0 n
b0 o
b0 p
b0 q
b0 r
0s
0t
1u
b100 v
1w
b1000 x
b100 ~
#100000
05
0W
0u
0w
#105000
1!
1"
15
bx @
b11110100001000110101 K
1W
1Y
1Z
b100100 [
b11111111111111111111111111110110 \
0]
0^
1`
0a
0b
b0 c
b0 e
1f
b0 g
0h
b11 i
bx j
b1100 m
b0 n
b100 o
b0 q
b0 r
0s
0t
1u
b100 v
1w
b1100 x
#110000
05
0W
0u
0w
#115000
0!
0"
0#
0%
10
15
b1111 7
b11111111111111111111111111110111 9
b1000 :
b11 I
b11110100001000110100 K
0L
0N
1W
0Y
0Z
b101000 [
b11111111111111111111111111110111 \
1]
1^
1_
1`
0a
0b
b0 c
b0 e
1f
b0 g
1h
b11 i
bx j
b1100 m
b0 n
b1000 o
b0 q
b0 r
0s
0t
1u
b100 v
1w
b1100 x
b101100 y
b10111 z
#120000
05
0W
0u
0w
#125000
1#
b101100 $
1%
b10111 &
1-
b101 .
00
15
b0 7
b1000 :
b11111111111111111111111111110111 ;
b100 >
b10000 ?
b100 H
b11110100001000110011 K
1L
b101100 M
1N
b10111 O
b101 T
1W
0Y
0Z
b101000 [
b11111111111111111111111111110111 \
0]
0^
0_
1`
0a
0b
b0 c
bx d
b0 e
1f
b0 g
0h
b100 i
bx j
1k
b10000 m
b0 n
b0 o
b0 p
b0 q
b0 r
0s
0t
1u
b1000 v
1w
b1100 x
b101 ~
#130000
05
0W
0u
0w
#135000
1!
1"
15
bx @
b11110100001000110010 K
1W
1Y
1Z
b101000 [
b11111111111111111111111111110111 \
0]
0^
1`
0a
0b
b0 c
b0 e
1f
b0 g
0h
b100 i
bx j
b10000 m
b0 n
b100 o
b0 q
b0 r
0s
0t
1u
b1000 v
1w
b10000 x
#140000
05
0W
0u
0w
#145000
0!
0"
0#
0%
10
15
b1111 7
b10111 9
b1100 :
b100 I
b11110100001000110001 K
0L
0N
1W
0Y
0Z
b101100 [
b10111 \
1]
1^
1_
1`
0a
0b
b0 c
b0 e
1f
b0 g
1h
b100 i
bx j
b10000 m
b0 n
b1000 o
b0 q
b0 r
0s
0t
1u
b1000 v
1w
b10000 x
b110000 y
b111000 z
#150000
05
0W
0u
0w
#155000
1#
b110000 $
1%
b111000 &
1-
b110 .
00
15
b0 7
b1100 :
b10111 ;
b101 >
b10100 ?
b101 H
b11110100001000110000 K
1L
b110000 M
1N
b111000 O
b110 T
1W
0Y
0Z
b101100 [
b10111 \
0]
0^
0_
1`
0a
0b
b0 c
bx d
b0 e
1f
b0 g
0h
b101 i
bx j
1k
b10100 m
b0 n
b0 o
b0 p
b0 q
b0 r
0s
0t
1u
b1100 v
1w
b10000 x
b110 ~
#160000
05
0W
0u
0w
#165000
1!
1"
15
bx @
b11110100001000101111 K
1W
1Y
1Z
b101100 [
b10111 \
0]
0^
1`
0a
0b
b0 c
b0 e
1f
b0 g
0h
b101 i
bx j
b10100 m
b0 n
b100 o
b0 q
b0 r
0s
0t
1u
b1100 v
1w
b10100 x
#170000
05
0W
0u
0w
#175000
0!
0"
0#
0%
10
15
b1111 7
b111000 9
b10000 :
b101 I
b11110100001000101110 K
0L
0N
1W
0Y
0Z
b110000 [
b111000 \
1]
1^
1_
1`
0a
0b
b0 c
b0 e
1f
b0 g
1h
b101 i
bx j
b10100 m
b0 n
b1000 o
b0 q
b0 r
0s
0t
1u
b1100 v
1w
b10100 x
b110100 y
b111111 z
#180000
05
0W
0u
0w
#185000
1#
b110100 $
1%
b111111 &
1-
b111 .
00
15
b0 7
b10000 :
b111000 ;
b110 >
b11000 ?
b110 H
b11110100001000101101 K
1L
b110100 M
1N
b111111 O
b111 T
1W
0Y
0Z
b110000 [
b111000 \
0]
0^
0_
1`
0a
0b
b0 c
bx d
b0 e
1f
b0 g
0h
b110 i
bx j
1k
b11000 m
b0 n
b0 o
b0 p
b0 q
b0 r
0s
0t
1u
b10000 v
1w
b10100 x
b111 ~
#190000
05
0W
0u
0w
#195000
1!
1"
15
bx @
b11110100001000101100 K
1W
1Y
1Z
b110000 [
b111000 \
0]
0^
1`
0a
0b
b0 c
b0 e
1f
b0 g
0h
b110 i
bx j
b11000 m
b0 n
b100 o
b0 q
b0 r
0s
0t
1u
b10000 v
1w
b11000 x
#200000
05
0W
0u
0w
#205000
0!
0"
0#
0%
10
15
b1111 7
b111111 9
b10100 :
b110 I
b11110100001000101011 K
0L
0N
1W
0Y
0Z
b110100 [
b111111 \
1]
1^
1_
1`
0a
0b
b0 c
b0 e
1f
b0 g
1h
b110 i
bx j
b11000 m
b0 n
b1000 o
b0 q
b0 r
0s
0t
1u
b10000 v
1w
b11000 x
b111000 y
b111000 z
#210000
05
0W
0u
0w
#215000
1#
b111000 $
1%
b111000 &
1-
b1000 .
00
15
b0 7
b10100 :
b111111 ;
b111 >
b11100 ?
b111 H
b11110100001000101010 K
1L
b111000 M
1N
b111000 O
b1000 T
1W
0Y
0Z
b110100 [
b111111 \
0]
0^
0_
1`
0a
0b
b0 c
bx d
b0 e
1f
b0 g
0h
b111 i
bx j
1k
b11100 m
b0 n
b0 o
b0 p
b0 q
b0 r
0s
0t
1u
b10100 v
1w
b11000 x
b1000 ~
#220000
05
0W
0u
0w
#225000
1!
1"
15
bx @
b11110100001000101001 K
1W
1Y
1Z
b110100 [
b111111 \
0]
0^
1`
0a
0b
b0 c
b0 e
1f
b0 g
0h
b111 i
bx j
b11100 m
b0 n
b100 o
b0 q
b0 r
0s
0t
1u
b10100 v
1w
b11100 x
#230000
05
0W
0u
0w
#235000
0!
0"
0#
0%
10
15
b1111 7
b111000 9
b11000 :
b111 I
b11110100001000101000 K
0L
0N
1W
0Y
0Z
b111000 [
b111000 \
1]
1^
1_
1`
0a
0b
b0 c
b0 e
1f
b0 g
1h
b111 i
bx j
b11100 m
b0 n
b1000 o
b0 q
b0 r
0s
0t
1u
b10100 v
1w
b11100 x
b111100 y
b10111 z
#240000
05
0W
0u
0w
#245000
1#
b111100 $
1%
b10111 &
1-
b1001 .
00
15
b0 7
b11000 :
b111000 ;
b1000 >
b100000 ?
b1000 H
b11110100001000100111 K
1L
b111100 M
1N
b10111 O
b1001 T
1W
0Y
0Z
b111000 [
b111000 \
0]
0^
0_
1`
0a
0b
b0 c
bx d
b0 e
1f
b0 g
0h
b1000 i
bx j
1k
b100000 m
b0 n
b0 o
b0 p
b0 q
b0 r
0s
0t
1u
b11000 v
1w
b11100 x
b1001 ~
#250000
05
0W
0u
0w
#255000
1!
1"
15
bx @
b11110100001000100110 K
1W
1Y
1Z
b111000 [
b111000 \
0]
0^
1`
0a
0b
b0 c
b0 e
1f
b0 g
0h
b1000 i
bx j
b100000 m
b0 n
b100 o
b0 q
b0 r
0s
0t
1u
b11000 v
1w
b100000 x
#260000
05
0W
0u
0w
#265000
0!
0"
0#
0%
10
15
b1111 7
b10111 9
b11100 :
b1000 I
b11110100001000100101 K
0L
0N
1W
0Y
0Z
b111100 [
b10111 \
1]
1^
1_
1`
0a
0b
b0 c
b0 e
1f
b0 g
1h
b1000 i
bx j
b100000 m
b0 n
b1000 o
b0 q
b0 r
0s
0t
1u
b11000 v
1w
b100000 x
b1000000 y
b11111111111111111111111111110111 z
#270000
05
0W
0u
0w
#275000
1#
b1000000 $
1%
b11111111111111111111111111110111 &
1-
b1010 .
00
15
b0 7
b11100 :
b10111 ;
b1001 >
b100100 ?
b1001 H
b11110100001000100100 K
1L
b1000000 M
1N
b11111111111111111111111111110111 O
b1010 T
1W
0Y
0Z
b111100 [
b10111 \
0]
0^
0_
1`
0a
0b
b0 c
bx d
b0 e
1f
b0 g
0h
b1001 i
bx j
1k
b100100 m
b0 n
b0 o
b0 p
b0 q
b0 r
0s
0t
1u
b11100 v
1w
b100000 x
b1010 ~
#280000
05
0W
0u
0w
#285000
1!
1"
15
bx @
b11110100001000100011 K
1W
1Y
1Z
b111100 [
b10111 \
0]
0^
1`
0a
0b
b0 c
b0 e
1f
b0 g
0h
b1001 i
bx j
b100100 m
b0 n
b100 o
b0 q
b0 r
0s
0t
1u
b11100 v
1w
b100100 x
#290000
05
0W
0u
0w
#295000
0!
0"
0#
0%
10
15
b1111 7
b11111111111111111111111111110111 9
b100000 :
b1001 I
b11110100001000100010 K
0L
0N
1W
0Y
0Z
b1000000 [
b11111111111111111111111111110111 \
1]
1^
1_
1`
0a
0b
b0 c
b0 e
1f
b0 g
1h
b1001 i
bx j
b100100 m
b0 n
b1000 o
b0 q
b0 r
0s
0t
1u
b11100 v
1w
b100100 x
b1000100 y
b11111111111111111111111111110110 z
#300000
05
0W
0u
0w
#305000
1#
b1000100 $
1%
b11111111111111111111111111110110 &
1-
b1011 .
00
15
b0 7
b100000 :
b11111111111111111111111111110111 ;
b1010 >
b101000 ?
b1010 H
b11110100001000100001 K
1L
b1000100 M
1N
b11111111111111111111111111110110 O
b1011 T
1W
0Y
0Z
b1000000 [
b11111111111111111111111111110111 \
0]
0^
0_
1`
0a
0b
b0 c
bx d
b0 e
1f
b0 g
0h
b1010 i
bx j
1k
b101000 m
b0 n
b0 o
b0 p
b0 q
b0 r
0s
0t
1u
b100000 v
1w
b100100 x
b1011 ~
#310000
05
0W
0u
0w
#315000
1!
1"
15
bx @
b11110100001000100000 K
1W
1Y
1Z
b1000000 [
b11111111111111111111111111110111 \
0]
0^
1`
0a
0b
b0 c
b0 e
1f
b0 g
0h
b1010 i
bx j
b101000 m
b0 n
b100 o
b0 q
b0 r
0s
0t
1u
b100000 v
1w
b101000 x
#320000
05
0W
0u
0w
#325000
0!
0"
0#
0%
10
15
b1111 7
b11111111111111111111111111110110 9
b100100 :
b1010 I
b11110100001000011111 K
0L
0N
1W
0Y
0Z
b1000100 [
b11111111111111111111111111110110 \
1]
1^
1_
1`
0a
0b
b0 c
b0 e
1f
b0 g
1h
b1010 i
bx j
b101000 m
b0 n
b1000 o
b0 q
b0 r
0s
0t
1u
b100000 v
1w
b101000 x
b1001000 y
b0 z
#330000
05
0W
0u
0w
#335000
1#
b1001000 $
1%
b0 &
1-
b1100 .
00
15
b0 7
b100100 :
b11111111111111111111111111110110 ;
b1011 >
b101100 ?
b1011 H
b11110100001000011110 K
1L
b1001000 M
1N
b0 O
b1100 T
1W
0Y
0Z
b1000100 [
b11111111111111111111111111110110 \
0]
0^
0_
1`
0a
0b
b0 c
bx d
b0 e
1f
b0 g
0h
b1011 i
bx j
1k
b101100 m
b0 n
b0 o
b0 p
b0 q
b0 r
0s
0t
1u
b100100 v
1w
b101000 x
b1100 ~
#340000
05
0W
0u
0w
#345000
1!
1"
15
bx @
b11110100001000011101 K
1W
1Y
1Z
b1000100 [
b11111111111111111111111111110110 \
0]
0^
1`
0a
0b
b0 c
b0 e
1f
b0 g
0h
b1011 i
bx j
b101100 m
b0 n
b100 o
b0 q
b0 r
0s
0t
1u
b100100 v
1w
b101100 x
#350000
05
0W
0u
0w
#355000
0!
0"
0#
0%
0)
10
15
b1111 7
b0 9
b101000 :
b0 I
b11110100001000011100 K
0L
0N
0P
1W
0Y
0Z
b1001000 [
b0 \
1]
1^
1_
1`
0a
0b
b0 c
b0 e
1f
b0 g
1h
b1011 i
bx j
b101100 m
b0 n
b1000 o
b0 q
b0 r
0s
0t
1u
b100100 v
1w
b101100 x
b100000 {
b0 |
b11111111111111111111111111111111 }
#360000
05
0W
0u
0w
#365000
1(
1)
b100000 *
1-
b1101 .
00
15
b0 7
b101000 :
b0 ;
b1100 >
b110000 ?
b1100 H
b11110100001000011011 K
1P
b100000 Q
1R
b1101 T
1W
0Y
0Z
b1001000 [
b0 \
0]
0^
0_
1`
0a
0b
b0 c
bx d
b0 e
1f
b0 g
0h
b1100 i
bx j
1k
b110000 m
b0 n
b0 o
b0 p
b0 q
b0 r
0s
0t
1u
b101000 v
1w
b101100 x
b1101 ~
#370000
05
0W
0u
0w
#375000
1'
15
b0 :
bx @
b11110100001000011010 K
1W
0Y
0Z
b1001000 [
b0 \
0]
0^
1`
1a
0b
b0 c
b0 e
1f
b0 g
0h
b1100 i
bx j
b110000 m
b0 n
b100 o
b0 q
b0 r
0s
0t
1u
b101000 v
1w
b110000 x
#380000
05
0W
0u
0w
#385000
0'
1+
b0 ,
15
b0 :
b0 ;
b11110100001000011001 K
1W
0Y
0Z
b1001000 [
b0 \
0]
0^
1`
0a
1b
b0 c
b0 d
b0 e
1f
b0 g
0h
b1100 i
bx j
b110000 m
b0 n
b1000 o
b0 q
b0 r
0s
0t
1u
b0 v
1w
b110000 x
#390000
05
0W
0u
0w
#395000
1'
0)
0+
15
b0 :
b1111 <
b1 I
b11110100001000011000 K
0P
1W
0Y
0Z
b1001000 [
b0 \
0]
0^
1`
1a
0b
b1 c
b0 d
b0 e
1f
b1111 g
0h
b1100 i
bx j
b110000 m
b0 n
b1100 o
bx p
b0 q
b0 r
0s
0t
1u
b0 v
1w
b110000 x
b100100 {
b11111111111111111111111111110110 |
b11111111111111111111111111111111 }
#400000
05
0W
0u
0w
#405000
1(
1)
b100100 *
15
b100 :
b0 <
b11110100001000010111 K
1P
b100100 Q
1W
0Y
0Z
b1001000 [
b0 \
0]
0^
1`
1a
0b
b1 c
b0 e
1f
b0 g
0h
b1100 i
bx j
b110000 m
b1 n
b10000 o
bx q
b0 r
0s
0t
1u
b0 v
1w
b110000 x
#410000
05
0W
0u
0w
#415000
0'
1+
b11111111111111111111111111110110 ,
15
b100 :
b11111111111111111111111111110110 ;
b11110100001000010110 K
1W
0Y
0Z
b1001000 [
b0 \
0]
0^
1`
0a
1b
b1 c
b11111111111111111111111111110110 d
b0 e
1f
b0 g
0h
b1100 i
bx j
b110000 m
b1 n
b10100 o
bx p
bx q
b0 r
0s
0t
1u
b100 v
1w
b110000 x
#420000
05
0W
0u
0w
#425000
1'
0)
0+
15
b100 :
b1111 <
b10 I
b11110100001000010101 K
0P
1W
0Y
0Z
b1001000 [
b0 \
0]
0^
1`
1a
0b
b10 c
b11111111111111111111111111110110 d
b0 e
1f
b1111 g
0h
b1100 i
bx j
b110000 m
b1 n
b11000 o
bx p
bx q
b0 r
0s
0t
1u
b100 v
1w
b110000 x
b101000 {
b11111111111111111111111111110111 |
b11111111111111111111111111111111 }
#430000
05
0W
0u
0w
#435000
1(
1)
b101000 *
15
b1000 :
b0 <
b11110100001000010100 K
1P
b101000 Q
1W
0Y
0Z
b1001000 [
b0 \
0]
0^
1`
1a
0b
b10 c
b0 e
1f
b0 g
0h
b1100 i
bx j
b110000 m
b10 n
b11100 o
bx q
b0 r
0s
0t
1u
b100 v
1w
b110000 x
#440000
05
0W
0u
0w
#445000
0'
1+
b11111111111111111111111111110111 ,
15
b1000 :
b11111111111111111111111111110111 ;
b11110100001000010011 K
1W
0Y
0Z
b1001000 [
b0 \
0]
0^
1`
0a
1b
b10 c
b11111111111111111111111111110111 d
b0 e
1f
b0 g
0h
b1100 i
bx j
b110000 m
b10 n
b100000 o
bx p
bx q
b0 r
0s
0t
1u
b1000 v
1w
b110000 x
#450000
05
0W
0u
0w
#455000
1'
0)
0+
15
b1000 :
b1111 <
b11 I
b11110100001000010010 K
0P
1W
0Y
0Z
b1001000 [
b0 \
0]
0^
1`
1a
0b
b11 c
b11111111111111111111111111110111 d
b0 e
1f
b1111 g
0h
b1100 i
bx j
b110000 m
b10 n
b100100 o
bx p
bx q
b0 r
0s
0t
1u
b1000 v
1w
b110000 x
b101100 {
b10111 |
b11111111111111111111111111111111 }
#460000
05
0W
0u
0w
#465000
1(
1)
b101100 *
15
b1100 :
b0 <
b11110100001000010001 K
1P
b101100 Q
1W
0Y
0Z
b1001000 [
b0 \
0]
0^
1`
1a
0b
b11 c
b0 e
1f
b0 g
0h
b1100 i
bx j
b110000 m
b11 n
b101000 o
bx q
b0 r
0s
0t
1u
b1000 v
1w
b110000 x
#470000
05
0W
0u
0w
#475000
0'
1+
b10111 ,
15
b1100 :
b10111 ;
b11110100001000010000 K
1W
0Y
0Z
b1001000 [
b0 \
0]
0^
1`
0a
1b
b11 c
b10111 d
b0 e
1f
b0 g
0h
b1100 i
bx j
b110000 m
b11 n
b101100 o
bx p
bx q
b0 r
0s
0t
1u
b1100 v
1w
b110000 x
#480000
05
0W
0u
0w
#485000
1'
0)
0+
15
b1100 :
b1111 <
b100 I
b11110100001000001111 K
0P
1W
0Y
0Z
b1001000 [
b0 \
0]
0^
1`
1a
0b
b100 c
b10111 d
b0 e
1f
b1111 g
0h
b1100 i
bx j
b110000 m
b11 n
b110000 o
bx p
bx q
b0 r
0s
0t
1u
b1100 v
1w
b110000 x
b110000 {
b111000 |
b11111111111111111111111111111111 }
#490000
05
0W
0u
0w
#495000
1(
1)
b110000 *
15
b10000 :
b0 <
b11110100001000001110 K
1P
b110000 Q
1W
0Y
0Z
b1001000 [
b0 \
0]
0^
1`
1a
0b
b100 c
b0 e
1f
b0 g
0h
b1100 i
bx j
b110000 m
b100 n
b110100 o
bx q
b0 r
0s
0t
1u
b1100 v
1w
b110000 x
#500000
05
0W
0u
0w
#505000
0'
1+
b111000 ,
15
b10000 :
b111000 ;
b11110100001000001101 K
1W
0Y
0Z
b1001000 [
b0 \
0]
0^
1`
0a
1b
b100 c
b111000 d
b0 e
1f
b0 g
0h
b1100 i
bx j
b110000 m
b100 n
b111000 o
bx p
bx q
b0 r
0s
0t
1u
b10000 v
1w
b110000 x
#510000
05
0W
0u
0w
#515000
1'
0)
0+
15
b10000 :
b1111 <
b101 I
b11110100001000001100 K
0P
1W
0Y
0Z
b1001000 [
b0 \
0]
0^
1`
1a
0b
b101 c
b111000 d
b0 e
1f
b1111 g
0h
b1100 i
bx j
b110000 m
b100 n
b111100 o
bx p
bx q
b0 r
0s
0t
1u
b10000 v
1w
b110000 x
b110100 {
b111111 |
b11111111111111111111111111111111 }
#520000
05
0W
0u
0w
#525000
1(
1)
b110100 *
15
b10100 :
b0 <
b11110100001000001011 K
1P
b110100 Q
1W
0Y
0Z
b1001000 [
b0 \
0]
0^
1`
1a
0b
b101 c
b0 e
1f
b0 g
0h
b1100 i
bx j
b110000 m
b101 n
b1000000 o
bx q
b0 r
0s
0t
1u
b10000 v
1w
b110000 x
#530000
05
0W
0u
0w
#535000
0'
1+
b111111 ,
15
b10100 :
b111111 ;
b11110100001000001010 K
1W
0Y
0Z
b1001000 [
b0 \
0]
0^
1`
0a
1b
b101 c
b111111 d
b0 e
1f
b0 g
0h
b1100 i
bx j
b110000 m
b101 n
b1000100 o
bx p
bx q
b0 r
0s
0t
1u
b10100 v
1w
b110000 x
#540000
05
0W
0u
0w
#545000
1'
0)
0+
15
b10100 :
b1111 <
b110 I
b11110100001000001001 K
0P
1W
0Y
0Z
b1001000 [
b0 \
0]
0^
1`
1a
0b
b110 c
b111111 d
b0 e
1f
b1111 g
0h
b1100 i
bx j
b110000 m
b101 n
b1001000 o
bx p
bx q
b0 r
0s
0t
1u
b10100 v
1w
b110000 x
b111000 {
b111000 |
b11111111111111111111111111111111 }
#550000
05
0W
0u
0w
#555000
1(
1)
b111000 *
15
b11000 :
b0 <
b11110100001000001000 K
1P
b111000 Q
1W
0Y
0Z
b1001000 [
b0 \
0]
0^
1`
1a
0b
b110 c
b0 e
1f
b0 g
0h
b1100 i
bx j
b110000 m
b110 n
b1001100 o
bx q
b0 r
0s
0t
1u
b10100 v
1w
b110000 x
#560000
05
0W
0u
0w
#565000
0'
1+
b111000 ,
15
b11000 :
b111000 ;
b11110100001000000111 K
1W
0Y
0Z
b1001000 [
b0 \
0]
0^
1`
0a
1b
b110 c
b111000 d
b0 e
1f
b0 g
0h
b1100 i
bx j
b110000 m
b110 n
b1010000 o
bx p
bx q
b0 r
0s
0t
1u
b11000 v
1w
b110000 x
#570000
05
0W
0u
0w
